^C:\CPP\SDL_GAME2\SDL_GAME2\SDL_GAME2.CPP
/c /Zi /nologo /W3 /WX- /diagnostics:column /sdl /O2 /Oi /Oy- /GL /D WIN32 /D NDEBUG /D _CONSOLE /D _UNICODE /D UNICODE /Gm- /EHsc /MD /GS /Gy /fp:precise /Zc:wchar_t /Zc:forScope /Zc:inline /permissive- /Fo"RELEASE\\" /Fd"RELEASE\VC143.PDB" /external:W3 /Gd /TP /analyze- /FC C:\CPP\SDL_GAME2\SDL_GAME2\SDL_GAME2.CPP
^C:\CPP\SDL_GAME2\SDL_GAME2\AMOOBJECT.CPP
/c /Zi /nologo /W3 /WX- /diagnostics:column /sdl /O2 /Oi /Oy- /GL /D WIN32 /D NDEBUG /D _CONSOLE /D _UNICODE /D UNICODE /Gm- /EHsc /MD /GS /Gy /fp:precise /Zc:wchar_t /Zc:forScope /Zc:inline /permissive- /Fo"RELEASE\\" /Fd"RELEASE\VC143.PDB" /external:W3 /Gd /TP /analyze- /FC C:\CPP\SDL_GAME2\SDL_GAME2\AMOOBJECT.CPP
^C:\CPP\SDL_GAME2\SDL_GAME2\BASEOBJECT.CPP
/c /Zi /nologo /W3 /WX- /diagnostics:column /sdl /O2 /Oi /Oy- /GL /D WIN32 /D NDEBUG /D _CONSOLE /D _UNICODE /D UNICODE /Gm- /EHsc /MD /GS /Gy /fp:precise /Zc:wchar_t /Zc:forScope /Zc:inline /permissive- /Fo"RELEASE\\" /Fd"RELEASE\VC143.PDB" /external:W3 /Gd /TP /analyze- /FC C:\CPP\SDL_GAME2\SDL_GAME2\BASEOBJECT.CPP
^C:\CPP\SDL_GAME2\SDL_GAME2\COMMON_FUNCTION.CPP
/c /Zi /nologo /W3 /WX- /diagnostics:column /sdl /O2 /Oi /Oy- /GL /D WIN32 /D NDEBUG /D _CONSOLE /D _UNICODE /D UNICODE /Gm- /EHsc /MD /GS /Gy /fp:precise /Zc:wchar_t /Zc:forScope /Zc:inline /permissive- /Fo"RELEASE\\" /Fd"RELEASE\VC143.PDB" /external:W3 /Gd /TP /analyze- /FC C:\CPP\SDL_GAME2\SDL_GAME2\COMMON_FUNCTION.CPP
^C:\CPP\SDL_GAME2\SDL_GAME2\EXPLOSIONOBJECT.CPP
/c /Zi /nologo /W3 /WX- /diagnostics:column /sdl /O2 /Oi /Oy- /GL /D WIN32 /D NDEBUG /D _CONSOLE /D _UNICODE /D UNICODE /Gm- /EHsc /MD /GS /Gy /fp:precise /Zc:wchar_t /Zc:forScope /Zc:inline /permissive- /Fo"RELEASE\\" /Fd"RELEASE\VC143.PDB" /external:W3 /Gd /TP /analyze- /FC C:\CPP\SDL_GAME2\SDL_GAME2\EXPLOSIONOBJECT.CPP
^C:\CPP\SDL_GAME2\SDL_GAME2\MAINOBJECT.CPP
/c /Zi /nologo /W3 /WX- /diagnostics:column /sdl /O2 /Oi /Oy- /GL /D WIN32 /D NDEBUG /D _CONSOLE /D _UNICODE /D UNICODE /Gm- /EHsc /MD /GS /Gy /fp:precise /Zc:wchar_t /Zc:forScope /Zc:inline /permissive- /Fo"RELEASE\\" /Fd"RELEASE\VC143.PDB" /external:W3 /Gd /TP /analyze- /FC C:\CPP\SDL_GAME2\SDL_GAME2\MAINOBJECT.CPP
^C:\CPP\SDL_GAME2\SDL_GAME2\PLAYERHEART.CPP
/c /Zi /nologo /W3 /WX- /diagnostics:column /sdl /O2 /Oi /Oy- /GL /D WIN32 /D NDEBUG /D _CONSOLE /D _UNICODE /D UNICODE /Gm- /EHsc /MD /GS /Gy /fp:precise /Zc:wchar_t /Zc:forScope /Zc:inline /permissive- /Fo"RELEASE\\" /Fd"RELEASE\VC143.PDB" /external:W3 /Gd /TP /analyze- /FC C:\CPP\SDL_GAME2\SDL_GAME2\PLAYERHEART.CPP
^C:\CPP\SDL_GAME2\SDL_GAME2\TEXTOBJECT.CPP
/c /Zi /nologo /W3 /WX- /diagnostics:column /sdl /O2 /Oi /Oy- /GL /D WIN32 /D NDEBUG /D _CONSOLE /D _UNICODE /D UNICODE /Gm- /EHsc /MD /GS /Gy /fp:precise /Zc:wchar_t /Zc:forScope /Zc:inline /permissive- /Fo"RELEASE\\" /Fd"RELEASE\VC143.PDB" /external:W3 /Gd /TP /analyze- /FC C:\CPP\SDL_GAME2\SDL_GAME2\TEXTOBJECT.CPP
^C:\CPP\SDL_GAME2\SDL_GAME2\THREATOBJECT.CPP
/c /Zi /nologo /W3 /WX- /diagnostics:column /sdl /O2 /Oi /Oy- /GL /D WIN32 /D NDEBUG /D _CONSOLE /D _UNICODE /D UNICODE /Gm- /EHsc /MD /GS /Gy /fp:precise /Zc:wchar_t /Zc:forScope /Zc:inline /permissive- /Fo"RELEASE\\" /Fd"RELEASE\VC143.PDB" /external:W3 /Gd /TP /analyze- /FC C:\CPP\SDL_GAME2\SDL_GAME2\THREATOBJECT.CPP
^C:\USERS\DELL\ONEDRIVE - VNU.EDU.VN\SDL_GAME2\SDL_GAME2\AMOOBJECT.CPP
/c /Zi /nologo /W3 /WX- /diagnostics:column /sdl /O2 /Oi /Oy- /GL /D WIN32 /D NDEBUG /D _CONSOLE /D _UNICODE /D UNICODE /Gm- /EHsc /MD /GS /Gy /fp:precise /Zc:wchar_t /Zc:forScope /Zc:inline /permissive- /Fo"RELEASE\\" /Fd"RELEASE\VC143.PDB" /external:W3 /Gd /TP /analyze- /FC C:\USERS\DELL\ONEDRIVE - VNU.EDU.VN\SDL_GAME2\SDL_GAME2\AMOOBJECT.CPP
^C:\USERS\DELL\ONEDRIVE - VNU.EDU.VN\SDL_GAME2\SDL_GAME2\BASEOBJECT.CPP
/c /Zi /nologo /W3 /WX- /diagnostics:column /sdl /O2 /Oi /Oy- /GL /D WIN32 /D NDEBUG /D _CONSOLE /D _UNICODE /D UNICODE /Gm- /EHsc /MD /GS /Gy /fp:precise /Zc:wchar_t /Zc:forScope /Zc:inline /permissive- /Fo"RELEASE\\" /Fd"RELEASE\VC143.PDB" /external:W3 /Gd /TP /analyze- /FC C:\USERS\DELL\ONEDRIVE - VNU.EDU.VN\SDL_GAME2\SDL_GAME2\BASEOBJECT.CPP
^C:\USERS\DELL\ONEDRIVE - VNU.EDU.VN\SDL_GAME2\SDL_GAME2\COMMON_FUNCTION.CPP
/c /Zi /nologo /W3 /WX- /diagnostics:column /sdl /O2 /Oi /Oy- /GL /D WIN32 /D NDEBUG /D _CONSOLE /D _UNICODE /D UNICODE /Gm- /EHsc /MD /GS /Gy /fp:precise /Zc:wchar_t /Zc:forScope /Zc:inline /permissive- /Fo"RELEASE\\" /Fd"RELEASE\VC143.PDB" /external:W3 /Gd /TP /analyze- /FC C:\USERS\DELL\ONEDRIVE - VNU.EDU.VN\SDL_GAME2\SDL_GAME2\COMMON_FUNCTION.CPP
^C:\USERS\DELL\ONEDRIVE - VNU.EDU.VN\SDL_GAME2\SDL_GAME2\EXPLOSIONOBJECT.CPP
/c /Zi /nologo /W3 /WX- /diagnostics:column /sdl /O2 /Oi /Oy- /GL /D WIN32 /D NDEBUG /D _CONSOLE /D _UNICODE /D UNICODE /Gm- /EHsc /MD /GS /Gy /fp:precise /Zc:wchar_t /Zc:forScope /Zc:inline /permissive- /Fo"RELEASE\\" /Fd"RELEASE\VC143.PDB" /external:W3 /Gd /TP /analyze- /FC C:\USERS\DELL\ONEDRIVE - VNU.EDU.VN\SDL_GAME2\SDL_GAME2\EXPLOSIONOBJECT.CPP
^C:\USERS\DELL\ONEDRIVE - VNU.EDU.VN\SDL_GAME2\SDL_GAME2\MAIN.CPP
/c /Zi /nologo /W3 /WX- /diagnostics:column /sdl /O2 /Oi /Oy- /GL /D WIN32 /D NDEBUG /D _CONSOLE /D _UNICODE /D UNICODE /Gm- /EHsc /MD /GS /Gy /fp:precise /Zc:wchar_t /Zc:forScope /Zc:inline /permissive- /Fo"RELEASE\\" /Fd"RELEASE\VC143.PDB" /external:W3 /Gd /TP /analyze- /FC C:\USERS\DELL\ONEDRIVE - VNU.EDU.VN\SDL_GAME2\SDL_GAME2\MAIN.CPP
^C:\USERS\DELL\ONEDRIVE - VNU.EDU.VN\SDL_GAME2\SDL_GAME2\MAINOBJECT.CPP
/c /Zi /nologo /W3 /WX- /diagnostics:column /sdl /O2 /Oi /Oy- /GL /D WIN32 /D NDEBUG /D _CONSOLE /D _UNICODE /D UNICODE /Gm- /EHsc /MD /GS /Gy /fp:precise /Zc:wchar_t /Zc:forScope /Zc:inline /permissive- /Fo"RELEASE\\" /Fd"RELEASE\VC143.PDB" /external:W3 /Gd /TP /analyze- /FC C:\USERS\DELL\ONEDRIVE - VNU.EDU.VN\SDL_GAME2\SDL_GAME2\MAINOBJECT.CPP
^C:\USERS\DELL\ONEDRIVE - VNU.EDU.VN\SDL_GAME2\SDL_GAME2\PLAYERHEART.CPP
/c /Zi /nologo /W3 /WX- /diagnostics:column /sdl /O2 /Oi /Oy- /GL /D WIN32 /D NDEBUG /D _CONSOLE /D _UNICODE /D UNICODE /Gm- /EHsc /MD /GS /Gy /fp:precise /Zc:wchar_t /Zc:forScope /Zc:inline /permissive- /Fo"RELEASE\\" /Fd"RELEASE\VC143.PDB" /external:W3 /Gd /TP /analyze- /FC C:\USERS\DELL\ONEDRIVE - VNU.EDU.VN\SDL_GAME2\SDL_GAME2\PLAYERHEART.CPP
^C:\USERS\DELL\ONEDRIVE - VNU.EDU.VN\SDL_GAME2\SDL_GAME2\TEXTOBJECT.CPP
/c /Zi /nologo /W3 /WX- /diagnostics:column /sdl /O2 /Oi /Oy- /GL /D WIN32 /D NDEBUG /D _CONSOLE /D _UNICODE /D UNICODE /Gm- /EHsc /MD /GS /Gy /fp:precise /Zc:wchar_t /Zc:forScope /Zc:inline /permissive- /Fo"RELEASE\\" /Fd"RELEASE\VC143.PDB" /external:W3 /Gd /TP /analyze- /FC C:\USERS\DELL\ONEDRIVE - VNU.EDU.VN\SDL_GAME2\SDL_GAME2\TEXTOBJECT.CPP
^C:\USERS\DELL\ONEDRIVE - VNU.EDU.VN\SDL_GAME2\SDL_GAME2\THREATOBJECT.CPP
/c /Zi /nologo /W3 /WX- /diagnostics:column /sdl /O2 /Oi /Oy- /GL /D WIN32 /D NDEBUG /D _CONSOLE /D _UNICODE /D UNICODE /Gm- /EHsc /MD /GS /Gy /fp:precise /Zc:wchar_t /Zc:forScope /Zc:inline /permissive- /Fo"RELEASE\\" /Fd"RELEASE\VC143.PDB" /external:W3 /Gd /TP /analyze- /FC C:\USERS\DELL\ONEDRIVE - VNU.EDU.VN\SDL_GAME2\SDL_GAME2\THREATOBJECT.CPP
^C:\CPP\SDL_GAME2\SDL_GAME2\MAIN.CPP
/c /Zi /nologo /W3 /WX- /diagnostics:column /sdl /O2 /Oi /Oy- /GL /D WIN32 /D NDEBUG /D _CONSOLE /D _UNICODE /D UNICODE /Gm- /EHsc /MD /GS /Gy /fp:precise /Zc:wchar_t /Zc:forScope /Zc:inline /permissive- /Fo"RELEASE\\" /Fd"RELEASE\VC143.PDB" /external:W3 /Gd /TP /analyze- /FC C:\CPP\SDL_GAME2\SDL_GAME2\MAIN.CPP
